{
  "healthData": [
    {
      "weight": 75.0,
      "height": 162.56,
      "dateTime": "01\/01\/2018 14:33:13"
    },
    {
      "weight": 74.5,
      "height": 182.0,
      "dateTime": "08\/01\/2018 20:00:00"
    },
    {
      "weight": 74.1,
      "height": 182.0,
      "dateTime": "15\/01\/2018 20:00:00"
    },
    {
      "weight": 73.8,
      "height": 182.0,
      "dateTime": "22\/01\/2018 20:00:00"
    },
    {
      "weight": 73.5,
      "height": 182.0,
      "dateTime": "29\/01\/2018 20:00:00"
    },
    {
      "weight": 73.2,
      "height": 182.0,
      "dateTime": "06\/02\/2018 20:00:00"
    },
    {
      "weight": 73.0,
      "height": 182.0,
      "dateTime": "13\/02\/2018 20:00:00"
    },
    {
      "weight": 72.8,
      "height": 182.0,
      "dateTime": "20\/02\/2018 20:00:00"
    },
    {
      "weight": 72.5,
      "height": 182.0,
      "dateTime": "27\/02\/2018 20:00:00"
    },
    {
      "weight": 72.2,
      "height": 182.0,
      "dateTime": "02\/03\/2018 20:00:00"
    },
    {
      "weight": 72.0,
      "height": 182.0,
      "dateTime": "09\/03\/2018 20:00:00"
    },
    {
      "weight": 72.5,
      "height": 182.0,
      "dateTime": "16\/03\/2018 20:00:00"
    },
    {
      "weight": 72.2,
      "height": 182.0,
      "dateTime": "23\/03\/2018 20:00:00"
    },
    {
      "weight": 72.0,
      "height": 182.0,
      "dateTime": "30\/03\/2018 20:00:00"
    },
    {
      "weight": 72.2,
      "height": 182.0,
      "dateTime": "06\/04\/2018 20:00:00"
    },
    {
      "weight": 72.4,
      "height": 182.0,
      "dateTime": "13\/04\/2018 20:00:00"
    },
    {
      "weight": 72.5,
      "height": 182.0,
      "dateTime": "20\/04\/2018 20:00:00"
    },
    {
      "weight": 72.6,
      "height": 182.0,
      "dateTime": "27\/04\/2018 20:00:00"
    },
    {
      "weight": 72.8,
      "height": 182.0,
      "dateTime": "02\/05\/2018 20:00:00"
    }
  ],
  "foods": [
    {
      "name": "Watermelon wedge (avg. weight 286g)",
      "calories": 85.8,
      "portion": 286.0,
      "meal": "Breakfast",
      "dateTime": "08\/05\/2018 14:58:50"
    },
    {
      "name": "Pancakes (American) (avg. weight 38g)",
      "calories": 32.68,
      "portion": 38.0,
      "meal": "Lunch",
      "dateTime": "08\/05\/2018 14:58:58"
    },
    {
      "name": "McDonalds Chicken Nuggets (avg. weight 95g)",
      "calories": 272.65000000000003,
      "portion": 95.0,
      "meal": "Dinner",
      "dateTime": "08\/05\/2018 14:59:05"
    }
  ],
  "activities": [
    {
      "name": "Dancing: disco, ballroom, square",
      "duration": 60.0,
      "caloriesBurnt": 410.0,
      "dateTime": "08\/05\/2018 14:58:32"
    }
  ],
  "healthScores": [
    {
      "healthScore": 1,
      "caloriesBurnt": 410,
      "caloriesConsumed": 389,
      "dateTime": "08\/05\/2018 14:58:13"
    }
  ]
}